{
    "success": true,
    "data": {
      "object": "list",
      "data": [
        {
          "object": "item",
          "id": "75e65b43-aa8f-451c-9311-6500bcf8a124",
          "organizationId": null,
          "folderId": null,
          "type": 1,
          "reprompt": 0,
          "name": "Climate Data Store",
          "notes": null,
          "favorite": false,
          "fields": [
            {
              "name": "uid",
              "value": "uid-value",
              "type": 0,
              "linkedId": null
            },
            {
              "name": "key-api",
              "value": "key-api-value",
              "type": 0,
              "linkedId": null
            }
          ],
          "login": {
            "uris": [
              {
                "match": null,
                "uri": "cds.climate.copernicus.eu"
              }
            ],
            "username": "my-secret-username",
            "password": "my-secret-password",
            "totp": null,
            "passwordRevisionDate": null
          },
          "collectionIds": [],
          "revisionDate": "2022-11-22T13:26:22.466Z",
          "deletedDate": null
        }
      ]
    }
}