{
    "success": true,
    "data": {
      "noColor": false,
      "object": "message",
      "title": "You are logged in!",
      "message": "\nTo unlock your vault, set your session key to the `BW_SESSION` environment variable. ex:\n$ export BW_SESSION=\"my-secret-session\"\n> $env:BW_SESSION=\"my-secret-session\"\n\nYou can also pass the session key to any command with the `--session` option. ex:\n$ bw list items --session my-secret-session",
      "raw": "my-secret-session"
    }
}